out.vcd
$date
	Wed Feb 26 18:25:48 2014
$end
$version
	Icarus Verilog
$end
$timescale
	1s
$end
$scope module IN_edge_detector $end
$var wire 1 ! clk $end
$var wire 1 " clk_180 $end
$var wire 1 # edge_flag $end
$var wire 1 $ in $end
$var wire 2 % out [1:0] $end
$var wire 1 & q0 $end
$var wire 1 ' q1 $end
$var reg 2 ( reg_out [1:0] $end
$scope module pos_edge $end
$var wire 1 ! clk $end
$var wire 1 $ in $end
$var reg 1 ) in_flipflop $end
$var reg 1 * out $end
$var reg 1 + out_flipflop $end
$upscope $end
$scope module neg_edge $end
$var wire 1 , clk $end
$var wire 1 $ in $end
$var reg 1 - in_flipflop $end
$var reg 1 . out $end
$var reg 1 / out_flipflop $end
$upscope $end
$upscope $end
$scope module add7_2 $end
$var wire 1 0 clk $end
$var wire 9 1 out [8:0] $end
$var wire 2 2 reg_2 [1:0] $end
$var wire 7 3 reg_7 [6:0] $end
$var reg 9 4 result [8:0] $end
$upscope $end
$scope module fast_edge_detector $end
$var wire 1 5 clk $end
$var wire 1 6 fast_clk $end
$var wire 1 7 fast_clk_180 $end
$var wire 1 8 in $end
$var wire 1 9 one $end
$var wire 2 : out [1:0] $end
$var wire 1 ; q0 $end
$var wire 1 < q1 $end
$var wire 1 = zero $end
$var reg 2 > reg_out [1:0] $end
$scope module in_ddr2 $end
$var wire 1 6 C0 $end
$var wire 1 7 C1 $end
$var wire 1 9 CE $end
$var wire 1 8 D $end
$var wire 1 ? GSR $end
$var wire 1 ; Q0 $end
$var wire 1 < Q1 $end
$var wire 1 = R $end
$var wire 1 = S $end
$var reg 1 @ q0_c1_out_int $end
$var reg 1 A q0_out $end
$var reg 1 B q0_out_int $end
$var reg 1 C q1_c0_out_int $end
$var reg 1 D q1_out $end
$var reg 1 E q1_out_int $end
$upscope $end
$upscope $end
$scope module general_counter $end
$var wire 1 F clk $end
$var wire 1 G enable $end
$var wire 7 H out [6:0] $end
$var wire 1 I reset $end
$var wire 1 J start $end
$var reg 7 K counter6_0 [6:0] $end
$var reg 1 L flag $end
$scope module edge_start $end
$var wire 1 F clk $end
$var wire 1 J in $end
$var reg 1 M in_flipflop $end
$var reg 1 N out $end
$var reg 1 O out_flipflop $end
$upscope $end
$upscope $end
$scope module glbl $end
$var wire 1 P GSR $end
$var wire 1 Q GTS $end
$var wire 1 R PRLD $end
$var reg 1 S GSR_int $end
$var reg 1 T GTS_int $end
$var reg 1 U JTAG_SEL1_GLBL $end
$var reg 1 V JTAG_SEL2_GLBL $end
$var reg 1 W JTAG_SEL3_GLBL $end
$var reg 1 X JTAG_SEL4_GLBL $end
$var reg 1 Y JTAG_USER_TDO1_GLBL $end
$var reg 1 Z JTAG_USER_TDO2_GLBL $end
$var reg 1 [ JTAG_USER_TDO3_GLBL $end
$var reg 1 \ JTAG_USER_TDO4_GLBL $end
$var reg 1 ] PRLD_int $end
$upscope $end
$scope module sreg_delay_16 $end
$var wire 1 ^ clk $end
$var wire 1 _ in $end
$var wire 1 ` one $end
$var wire 1 a out $end
$var wire 1 b sreg14_out $end
$var wire 1 c zero $end
$var reg 1 d reg_out $end
$scope module sreg16_lut $end
$var wire 1 ` A0 $end
$var wire 1 c A1 $end
$var wire 1 c A2 $end
$var wire 1 c A3 $end
$var wire 1 ^ CLK $end
$var wire 1 _ D $end
$var wire 1 b Q $end
$var reg 16 e data [15:0] $end
$upscope $end
$upscope $end
$scope module test $end
$var wire 1 f edge_flag $end
$var wire 2 g out [1:0] $end
$var reg 1 h clk $end
$var reg 1 i clk_180 $end
$var reg 1 j in $end
$var reg 2 k reg_2 [1:0] $end
$var reg 7 l reg_7 [6:0] $end
$var reg 1 m reset $end
$scope module fast_edge $end
$var wire 1 n clk $end
$var wire 1 o clk_180 $end
$var wire 1 f edge_flag $end
$var wire 1 p in $end
$var wire 2 q out [1:0] $end
$var wire 1 r q0 $end
$var wire 1 s q1 $end
$var reg 2 t reg_out [1:0] $end
$scope module pos_edge $end
$var wire 1 n clk $end
$var wire 1 p in $end
$var reg 1 u in_flipflop $end
$var reg 1 v out $end
$var reg 1 w out_flipflop $end
$upscope $end
$scope module neg_edge $end
$var wire 1 x clk $end
$var wire 1 p in $end
$var reg 1 y in_flipflop $end
$var reg 1 z out $end
$var reg 1 { out_flipflop $end
$upscope $end
$upscope $end
$upscope $end
$scope module timestamp_counter $end
$var wire 1 | clk $end
$var wire 1 } gate $end
$var wire 29 ~ out [28:0] $end
$var reg 29 !" counter28_0 [28:0] $end
$upscope $end
$enddefinitions $end
#0
$dumpvars
b0 !"
b0 ~
z}
z|
0{
0z
0y
1x
0w
0v
0u
b0 t
0s
0r
b10 q
0p
1o
0n
0m
b1101101 l
b1 k
0j
1i
0h
b10 g
0f
b0 e
0d
0c
0b
0a
1`
z_
z^
1]
z\
z[
zZ
zY
0X
0W
0V
0U
0T
1S
1R
0Q
1P
0O
0N
0M
0L
b0 K
zJ
zI
b0 H
0G
zF
0E
0D
0C
0B
0A
0@
1?
b0 >
0=
0<
0;
b0 :
19
z8
z7
z6
z5
b0 4
bz 3
bz 2
b0 1
z0
0/
0.
0-
x,
0+
0*
0)
b0 (
0'
0&
b0 %
z$
0#
z"
z!
$end
#2
b0 t
0x
0i
0o
1h
1n
#4
1x
1i
1o
0h
0n
#6
b0 t
0x
0i
0o
1h
1n
#8
1x
1i
1o
0h
0n
#10
b0 t
0x
0i
0o
1h
1n
#12
1x
1i
1o
0h
0n
#14
b0 t
0x
0i
0o
1h
1n
#16
1x
1i
1o
0h
0n
#18
b0 t
0x
0i
0o
1h
1n
#20
1x
1i
1o
0h
0n
#22
b0 t
0x
0i
0o
1h
1n
#24
1x
1i
1o
0h
0n
#26
b0 t
0x
0i
0o
1h
1n
#28
1x
1i
1o
0h
0n
#30
b0 t
0x
0i
0o
1h
1n
#32
1x
1i
1o
0h
0n
#34
b0 t
0x
0i
0o
1h
1n
#36
1x
1i
1o
0h
0n
#38
b0 t
0x
0i
0o
1h
1n
#40
1x
1i
1o
0h
0n
#41
1j
1p
#42
1u
b0 t
0x
0i
0o
1h
1n
#44
1y
1x
1i
1o
0h
0n
#46
b0 t
1v
1r
1w
0x
0i
0o
1h
1n
#48
1z
1s
1{
1x
1i
1o
0h
0n
#50
1f
b1 g
b1 q
0v
0r
b11 t
0x
0i
0o
1h
1n
#52
0z
0s
1x
1i
1o
0h
0n
#54
0f
b10 g
b10 q
b0 t
0x
0i
0o
1h
1n
#56
1x
1i
1o
0h
0n
#58
b0 t
0x
0i
0o
1h
1n
#60
1x
1i
1o
0h
0n
#62
b0 t
0x
0i
0o
1h
1n
#64
1x
1i
1o
0h
0n
#66
b0 t
0x
0i
0o
1h
1n
#68
1x
1i
1o
0h
0n
#70
b0 t
0x
0i
0o
1h
1n
#72
1x
1i
1o
0h
0n
#74
b0 t
0x
0i
0o
1h
1n
#76
1x
1i
1o
0h
0n
#78
b0 t
0x
0i
0o
1h
1n
#80
1x
1i
1o
0h
0n
#82
b0 t
0x
0i
0o
1h
1n
#84
1x
1i
1o
0h
0n
#86
b0 t
0x
0i
0o
1h
1n
#88
1x
1i
1o
0h
0n
#90
b0 t
0x
0i
0o
1h
1n
#92
1x
1i
1o
0h
0n
#94
b0 t
0x
0i
0o
1h
1n
#96
1x
1i
1o
0h
0n
#98
b0 t
0x
0i
0o
1h
1n
#100
1x
1i
1o
0h
0n
#102
b0 t
0x
0i
0o
1h
1n
#104
1x
1i
1o
0h
0n
#106
b0 t
0x
0i
0o
1h
1n
#108
1x
1i
1o
0h
0n
#110
b0 t
0x
0i
0o
1h
1n
#112
1x
1i
1o
0h
0n
#114
b0 t
0x
0i
0o
1h
1n
#116
1x
1i
1o
0h
0n
#118
b0 t
0x
0i
0o
1h
1n
#120
1x
1i
1o
0h
0n
#122
b0 t
0x
0i
0o
1h
1n
#124
1x
1i
1o
0h
0n
#126
b0 t
0x
0i
0o
1h
1n
#128
1x
1i
1o
0h
0n
#130
b0 t
0x
0i
0o
1h
1n
#132
1x
1i
1o
0h
0n
#134
b0 t
0x
0i
0o
1h
1n
#136
1x
1i
1o
0h
0n
#138
b0 t
0x
0i
0o
1h
1n
#140
1x
1i
1o
0h
0n
#142
b0 t
0x
0i
0o
1h
1n
#144
1x
1i
1o
0h
0n
#146
b0 t
0x
0i
0o
1h
1n
#148
1x
1i
1o
0h
0n
#150
b0 t
0x
0i
0o
1h
1n
#152
1x
1i
1o
0h
0n
#154
b0 t
0x
0i
0o
1h
1n
#156
1x
1i
1o
0h
0n
#158
b0 t
0x
0i
0o
1h
1n
#160
1x
1i
1o
0h
0n
#162
b0 t
0x
0i
0o
1h
1n
#164
1x
1i
1o
0h
0n
#166
b0 t
0x
0i
0o
1h
1n
#168
1x
1i
1o
0h
0n
#170
b0 t
0x
0i
0o
1h
1n
#172
1x
1i
1o
0h
0n
#174
b0 t
0x
0i
0o
1h
1n
#176
1x
1i
1o
0h
0n
#178
b0 t
0x
0i
0o
1h
1n
#180
1x
1i
1o
0h
0n
#182
b0 t
0x
0i
0o
1h
1n
#184
1x
1i
1o
0h
0n
#186
b0 t
0x
0i
0o
1h
1n
#188
1x
1i
1o
0h
0n
#190
b0 t
0x
0i
0o
1h
1n
#192
1x
1i
1o
0h
0n
#194
b0 t
0x
0i
0o
1h
1n
#196
1x
1i
1o
0h
0n
#198
b0 t
0x
0i
0o
1h
1n
#200
1x
1i
1o
0h
0n
#202
b0 t
0x
0i
0o
1h
1n
#204
1x
1i
1o
0h
0n
#206
b0 t
0x
0i
0o
1h
1n
#208
1x
1i
1o
0h
0n
#210
b0 t
0x
0i
0o
1h
1n
#212
1x
1i
1o
0h
0n
#214
b0 t
0x
0i
0o
1h
1n
#216
1x
1i
1o
0h
0n
#218
b0 t
0x
0i
0o
1h
1n
#220
1x
1i
1o
0h
0n
#222
b0 t
0x
0i
0o
1h
1n
#224
1x
1i
1o
0h
0n
#226
b0 t
0x
0i
0o
1h
1n
#228
1x
1i
1o
0h
0n
#230
b0 t
0x
0i
0o
1h
1n
#232
1x
1i
1o
0h
0n
#234
b0 t
0x
0i
0o
1h
1n
#236
1x
1i
1o
0h
0n
#238
b0 t
0x
0i
0o
1h
1n
#240
1x
1i
1o
0h
0n
#242
b0 t
0x
0i
0o
1h
1n
#244
1x
1i
1o
0h
0n
#246
b0 t
0x
0i
0o
1h
1n
#248
1x
1i
1o
0h
0n
#250
b0 t
0x
0i
0o
1h
1n
#252
1x
1i
1o
0h
0n
#254
b0 t
0x
0i
0o
1h
1n
#256
1x
1i
1o
0h
0n
#258
b0 t
0x
0i
0o
1h
1n
#260
1x
1i
1o
0h
0n
#262
b0 t
0x
0i
0o
1h
1n
#264
1x
1i
1o
0h
0n
#266
b0 t
0x
0i
0o
1h
1n
#268
1x
1i
1o
0h
0n
#270
b0 t
0x
0i
0o
1h
1n
#272
1x
1i
1o
0h
0n
#274
b0 t
0x
0i
0o
1h
1n
#276
1x
1i
1o
0h
0n
#278
b0 t
0x
0i
0o
1h
1n
#280
1x
1i
1o
0h
0n
#282
b0 t
0x
0i
0o
1h
1n
#284
1x
1i
1o
0h
0n
#286
b0 t
0x
0i
0o
1h
1n
#288
1x
1i
1o
0h
0n
#290
b0 t
0x
0i
0o
1h
1n
#292
1x
1i
1o
0h
0n
#294
b0 t
0x
0i
0o
1h
1n
#296
1x
1i
1o
0h
0n
#298
b0 t
0x
0i
0o
1h
1n
#300
1x
1i
1o
0h
0n
#302
b0 t
0x
0i
0o
1h
1n
#304
1x
1i
1o
0h
0n
#306
b0 t
0x
0i
0o
1h
1n
#308
1x
1i
1o
0h
0n
#310
b0 t
0x
0i
0o
1h
1n
#312
1x
1i
1o
0h
0n
#314
b0 t
0x
0i
0o
1h
1n
#316
1x
1i
1o
0h
0n
#318
b0 t
0x
0i
0o
1h
1n
#320
1x
1i
1o
0h
0n
#322
b0 t
0x
0i
0o
1h
1n
#324
1x
1i
1o
0h
0n
#326
b0 t
0x
0i
0o
1h
1n
#328
1x
1i
1o
0h
0n
#330
b0 t
0x
0i
0o
1h
1n
#332
1x
1i
1o
0h
0n
#334
b0 t
0x
0i
0o
1h
1n
#336
1x
1i
1o
0h
0n
#338
b0 t
0x
0i
0o
1h
1n
#340
1x
1i
1o
0h
0n
#342
b0 t
0x
0i
0o
1h
1n
#344
1x
1i
1o
0h
0n
#346
b0 t
0x
0i
0o
1h
1n
#348
1x
1i
1o
0h
0n
#350
b0 t
0x
0i
0o
1h
1n
#352
1x
1i
1o
0h
0n
#354
b0 t
0x
0i
0o
1h
1n
#356
1x
1i
1o
0h
0n
#358
b0 t
0x
0i
0o
1h
1n
#360
1x
1i
1o
0h
0n
#362
b0 t
0x
0i
0o
1h
1n
#364
1x
1i
1o
0h
0n
#366
b0 t
0x
0i
0o
1h
1n
#368
1x
1i
1o
0h
0n
#370
b0 t
0x
0i
0o
1h
1n
#372
1x
1i
1o
0h
0n
#374
b0 t
0x
0i
0o
1h
1n
#376
1x
1i
1o
0h
0n
#378
b0 t
0x
0i
0o
1h
1n
#380
1x
1i
1o
0h
0n
#382
b0 t
0x
0i
0o
1h
1n
#384
1x
1i
1o
0h
0n
#386
b0 t
0x
0i
0o
1h
1n
#388
1x
1i
1o
0h
0n
#390
b0 t
0x
0i
0o
1h
1n
#392
1x
1i
1o
0h
0n
#394
b0 t
0x
0i
0o
1h
1n
#396
1x
1i
1o
0h
0n
#398
b0 t
0x
0i
0o
1h
1n
#400
1x
1i
1o
0h
0n
#402
b0 t
0x
0i
0o
1h
1n
#404
1x
1i
1o
0h
0n
#406
b0 t
0x
0i
0o
1h
1n
#408
1x
1i
1o
0h
0n
#410
b0 t
0x
0i
0o
1h
1n
#412
1x
1i
1o
0h
0n
#414
b0 t
0x
0i
0o
1h
1n
#416
1x
1i
1o
0h
0n
#418
b0 t
0x
0i
0o
1h
1n
#420
1x
1i
1o
0h
0n
#422
b0 t
0x
0i
0o
1h
1n
#424
1x
1i
1o
0h
0n
#426
b0 t
0x
0i
0o
1h
1n
#428
1x
1i
1o
0h
0n
#430
b0 t
0x
0i
0o
1h
1n
#432
1x
1i
1o
0h
0n
#434
b0 t
0x
0i
0o
1h
1n
#436
1x
1i
1o
0h
0n
#438
b0 t
0x
0i
0o
1h
1n
#440
1x
1i
1o
0h
0n
#442
b0 t
0x
0i
0o
1h
1n
#444
1x
1i
1o
0h
0n
#446
b0 t
0x
0i
0o
1h
1n
#448
1x
1i
1o
0h
0n
#450
b0 t
0x
0i
0o
1h
1n
#452
1x
1i
1o
0h
0n
#454
b0 t
0x
0i
0o
1h
1n
#456
1x
1i
1o
0h
0n
#458
b0 t
0x
0i
0o
1h
1n
#460
1x
1i
1o
0h
0n
#462
b0 t
0x
0i
0o
1h
1n
#464
1x
1i
1o
0h
0n
#466
b0 t
0x
0i
0o
1h
1n
#468
1x
1i
1o
0h
0n
#470
b0 t
0x
0i
0o
1h
1n
#472
1x
1i
1o
0h
0n
#474
b0 t
0x
0i
0o
1h
1n
#476
1x
1i
1o
0h
0n
#478
b0 t
0x
0i
0o
1h
1n
#480
1x
1i
1o
0h
0n
#482
b0 t
0x
0i
0o
1h
1n
#484
1x
1i
1o
0h
0n
#486
b0 t
0x
0i
0o
1h
1n
#488
1x
1i
1o
0h
0n
#490
b0 t
0x
0i
0o
1h
1n
#492
1x
1i
1o
0h
0n
#494
b0 t
0x
0i
0o
1h
1n
#496
1x
1i
1o
0h
0n
#498
b0 t
0x
0i
0o
1h
1n
#500
1x
1i
1o
0h
0n
#502
b0 t
0x
0i
0o
1h
1n
#504
1x
1i
1o
0h
0n
#506
b0 t
0x
0i
0o
1h
1n
#508
1x
1i
1o
0h
0n
#510
b0 t
0x
0i
0o
1h
1n
#512
1x
1i
1o
0h
0n
#514
b0 t
0x
0i
0o
1h
1n
#516
1x
1i
1o
0h
0n
#518
b0 t
0x
0i
0o
1h
1n
#520
1x
1i
1o
0h
0n
#522
b0 t
0x
0i
0o
1h
1n
#524
1x
1i
1o
0h
0n
#526
b0 t
0x
0i
0o
1h
1n
#528
1x
1i
1o
0h
0n
#530
b0 t
0x
0i
0o
1h
1n
#532
1x
1i
1o
0h
0n
#534
b0 t
0x
0i
0o
1h
1n
#536
1x
1i
1o
0h
0n
#538
b0 t
0x
0i
0o
1h
1n
#540
1x
1i
1o
0h
0n
#542
b0 t
0x
0i
0o
1h
1n
#544
1x
1i
1o
0h
0n
#546
b0 t
0x
0i
0o
1h
1n
#548
1x
1i
1o
0h
0n
#550
b0 t
0x
0i
0o
1h
1n
#552
1x
1i
1o
0h
0n
#554
b0 t
0x
0i
0o
1h
1n
#556
1x
1i
1o
0h
0n
#558
b0 t
0x
0i
0o
1h
1n
#560
1x
1i
1o
0h
0n
#562
b0 t
0x
0i
0o
1h
1n
#564
1x
1i
1o
0h
0n
#566
b0 t
0x
0i
0o
1h
1n
#568
1x
1i
1o
0h
0n
#570
b0 t
0x
0i
0o
1h
1n
#572
1x
1i
1o
0h
0n
#574
b0 t
0x
0i
0o
1h
1n
#576
1x
1i
1o
0h
0n
#578
b0 t
0x
0i
0o
1h
1n
#580
1x
1i
1o
0h
0n
#582
b0 t
0x
0i
0o
1h
1n
#584
1x
1i
1o
0h
0n
#586
b0 t
0x
0i
0o
1h
1n
#588
1x
1i
1o
0h
0n
#590
b0 t
0x
0i
0o
1h
1n
#592
1x
1i
1o
0h
0n
#594
b0 t
0x
0i
0o
1h
1n
#596
1x
1i
1o
0h
0n
#598
b0 t
0x
0i
0o
1h
1n
#600
1x
1i
1o
0h
0n
#602
b0 t
0x
0i
0o
1h
1n
#604
1x
1i
1o
0h
0n
#606
b0 t
0x
0i
0o
1h
1n
#608
1x
1i
1o
0h
0n
#610
b0 t
0x
0i
0o
1h
1n
#612
1x
1i
1o
0h
0n
#614
b0 t
0x
0i
0o
1h
1n
#616
1x
1i
1o
0h
0n
#618
b0 t
0x
0i
0o
1h
1n
#620
1x
1i
1o
0h
0n
#622
b0 t
0x
0i
0o
1h
1n
#624
1x
1i
1o
0h
0n
#626
b0 t
0x
0i
0o
1h
1n
#628
1x
1i
1o
0h
0n
#630
b0 t
0x
0i
0o
1h
1n
#632
1x
1i
1o
0h
0n
#634
b0 t
0x
0i
0o
1h
1n
#636
1x
1i
1o
0h
0n
#638
b0 t
0x
0i
0o
1h
1n
#640
1x
1i
1o
0h
0n
#642
b0 t
0x
0i
0o
1h
1n
#644
1x
1i
1o
0h
0n
#646
b0 t
0x
0i
0o
1h
1n
#648
1x
1i
1o
0h
0n
#650
b0 t
0x
0i
0o
1h
1n
#652
1x
1i
1o
0h
0n
#654
b0 t
0x
0i
0o
1h
1n
#656
1x
1i
1o
0h
0n
#658
b0 t
0x
0i
0o
1h
1n
#660
1x
1i
1o
0h
0n
#662
b0 t
0x
0i
0o
1h
1n
#664
1x
1i
1o
0h
0n
#666
b0 t
0x
0i
0o
1h
1n
#668
1x
1i
1o
0h
0n
#670
b0 t
0x
0i
0o
1h
1n
#672
1x
1i
1o
0h
0n
#674
b0 t
0x
0i
0o
1h
1n
#676
1x
1i
1o
0h
0n
#678
b0 t
0x
0i
0o
1h
1n
#680
1x
1i
1o
0h
0n
#682
b0 t
0x
0i
0o
1h
1n
#684
1x
1i
1o
0h
0n
#686
b0 t
0x
0i
0o
1h
1n
#688
1x
1i
1o
0h
0n
#690
b0 t
0x
0i
0o
1h
1n
#692
1x
1i
1o
0h
0n
#694
b0 t
0x
0i
0o
1h
1n
#696
1x
1i
1o
0h
0n
#698
b0 t
0x
0i
0o
1h
1n
#700
1x
1i
1o
0h
0n
#702
b0 t
0x
0i
0o
1h
1n
#704
1x
1i
1o
0h
0n
#706
b0 t
0x
0i
0o
1h
1n
#708
1x
1i
1o
0h
0n
#710
b0 t
0x
0i
0o
1h
1n
#712
1x
1i
1o
0h
0n
#714
b0 t
0x
0i
0o
1h
1n
#716
1x
1i
1o
0h
0n
#718
b0 t
0x
0i
0o
1h
1n
#720
1x
1i
1o
0h
0n
#722
b0 t
0x
0i
0o
1h
1n
#724
1x
1i
1o
0h
0n
#726
b0 t
0x
0i
0o
1h
1n
#728
1x
1i
1o
0h
0n
#730
b0 t
0x
0i
0o
1h
1n
#732
1x
1i
1o
0h
0n
#734
b0 t
0x
0i
0o
1h
1n
#736
1x
1i
1o
0h
0n
#738
b0 t
0x
0i
0o
1h
1n
#740
1x
1i
1o
0h
0n
#742
b0 t
0x
0i
0o
1h
1n
#744
1x
1i
1o
0h
0n
#746
b0 t
0x
0i
0o
1h
1n
#748
1x
1i
1o
0h
0n
#750
b0 t
0x
0i
0o
1h
1n
#752
1x
1i
1o
0h
0n
#754
b0 t
0x
0i
0o
1h
1n
#756
1x
1i
1o
0h
0n
#758
b0 t
0x
0i
0o
1h
1n
#760
1x
1i
1o
0h
0n
#762
b0 t
0x
0i
0o
1h
1n
#764
1x
1i
1o
0h
0n
#766
b0 t
0x
0i
0o
1h
1n
#768
1x
1i
1o
0h
0n
#770
b0 t
0x
0i
0o
1h
1n
#772
1x
1i
1o
0h
0n
#774
b0 t
0x
0i
0o
1h
1n
#776
1x
1i
1o
0h
0n
#778
b0 t
0x
0i
0o
1h
1n
#780
1x
1i
1o
0h
0n
#782
b0 t
0x
0i
0o
1h
1n
#784
1x
1i
1o
0h
0n
#786
b0 t
0x
0i
0o
1h
1n
#788
1x
1i
1o
0h
0n
#790
b0 t
0x
0i
0o
1h
1n
#792
1x
1i
1o
0h
0n
#794
b0 t
0x
0i
0o
1h
1n
#796
1x
1i
1o
0h
0n
#798
b0 t
0x
0i
0o
1h
1n
#800
1x
1i
1o
0h
0n
#802
b0 t
0x
0i
0o
1h
1n
#804
1x
1i
1o
0h
0n
#806
b0 t
0x
0i
0o
1h
1n
#808
1x
1i
1o
0h
0n
#810
b0 t
0x
0i
0o
1h
1n
#812
1x
1i
1o
0h
0n
#814
b0 t
0x
0i
0o
1h
1n
#816
1x
1i
1o
0h
0n
#818
b0 t
0x
0i
0o
1h
1n
#820
1x
1i
1o
0h
0n
#822
b0 t
0x
0i
0o
1h
1n
#824
1x
1i
1o
0h
0n
#826
b0 t
0x
0i
0o
1h
1n
#828
1x
1i
1o
0h
0n
#830
b0 t
0x
0i
0o
1h
1n
#832
1x
1i
1o
0h
0n
#834
b0 t
0x
0i
0o
1h
1n
#836
1x
1i
1o
0h
0n
#838
b0 t
0x
0i
0o
1h
1n
#840
1x
1i
1o
0h
0n
#842
b0 t
0x
0i
0o
1h
1n
#844
1x
1i
1o
0h
0n
#846
b0 t
0x
0i
0o
1h
1n
#848
1x
1i
1o
0h
0n
#850
b0 t
0x
0i
0o
1h
1n
#852
1x
1i
1o
0h
0n
#854
b0 t
0x
0i
0o
1h
1n
#856
1x
1i
1o
0h
0n
#858
b0 t
0x
0i
0o
1h
1n
#860
1x
1i
1o
0h
0n
#862
b0 t
0x
0i
0o
1h
1n
#864
1x
1i
1o
0h
0n
#866
b0 t
0x
0i
0o
1h
1n
#868
1x
1i
1o
0h
0n
#870
b0 t
0x
0i
0o
1h
1n
#872
1x
1i
1o
0h
0n
#874
b0 t
0x
0i
0o
1h
1n
#876
1x
1i
1o
0h
0n
#878
b0 t
0x
0i
0o
1h
1n
#880
1x
1i
1o
0h
0n
#882
b0 t
0x
0i
0o
1h
1n
#884
1x
1i
1o
0h
0n
#886
b0 t
0x
0i
0o
1h
1n
#888
1x
1i
1o
0h
0n
#890
b0 t
0x
0i
0o
1h
1n
#892
1x
1i
1o
0h
0n
#894
b0 t
0x
0i
0o
1h
1n
#896
1x
1i
1o
0h
0n
#898
b0 t
0x
0i
0o
1h
1n
#900
1x
1i
1o
0h
0n
#902
b0 t
0x
0i
0o
1h
1n
#904
1x
1i
1o
0h
0n
#906
b0 t
0x
0i
0o
1h
1n
#908
1x
1i
1o
0h
0n
#910
b0 t
0x
0i
0o
1h
1n
#912
1x
1i
1o
0h
0n
#914
b0 t
0x
0i
0o
1h
1n
#916
1x
1i
1o
0h
0n
#918
b0 t
0x
0i
0o
1h
1n
#920
1x
1i
1o
0h
0n
#922
b0 t
0x
0i
0o
1h
1n
#924
1x
1i
1o
0h
0n
#926
b0 t
0x
0i
0o
1h
1n
#928
1x
1i
1o
0h
0n
#930
b0 t
0x
0i
0o
1h
1n
#932
1x
1i
1o
0h
0n
#934
b0 t
0x
0i
0o
1h
1n
#936
1x
1i
1o
0h
0n
#938
b0 t
0x
0i
0o
1h
1n
#940
1x
1i
1o
0h
0n
#942
b0 t
0x
0i
0o
1h
1n
#944
1x
1i
1o
0h
0n
#946
b0 t
0x
0i
0o
1h
1n
#948
1x
1i
1o
0h
0n
#950
b0 t
0x
0i
0o
1h
1n
#952
1x
1i
1o
0h
0n
#954
b0 t
0x
0i
0o
1h
1n
#956
1x
1i
1o
0h
0n
#958
b0 t
0x
0i
0o
1h
1n
#960
1x
1i
1o
0h
0n
#962
b0 t
0x
0i
0o
1h
1n
#964
1x
1i
1o
0h
0n
#966
b0 t
0x
0i
0o
1h
1n
#968
1x
1i
1o
0h
0n
#970
b0 t
0x
0i
0o
1h
1n
#972
1x
1i
1o
0h
0n
#974
b0 t
0x
0i
0o
1h
1n
#976
1x
1i
1o
0h
0n
#978
b0 t
0x
0i
0o
1h
1n
#980
1x
1i
1o
0h
0n
#982
b0 t
0x
0i
0o
1h
1n
#984
1x
1i
1o
0h
0n
#986
b0 t
0x
0i
0o
1h
1n
#988
1x
1i
1o
0h
0n
#990
b0 t
0x
0i
0o
1h
1n
#992
1x
1i
1o
0h
0n
#994
b0 t
0x
0i
0o
1h
1n
#996
1x
1i
1o
0h
0n
#998
b0 t
0x
0i
0o
1h
1n
#1000
1x
1i
1o
0h
0n
#1002
b0 t
0x
0i
0o
1h
1n
#1004
1x
1i
1o
0h
0n
#1006
b0 t
0x
0i
0o
1h
1n
#1008
1x
1i
1o
0h
0n
#1010
b0 t
0x
0i
0o
1h
1n
#1012
1x
1i
1o
0h
0n
#1014
b0 t
0x
0i
0o
1h
1n
#1016
1x
1i
1o
0h
0n
#1018
b0 t
0x
0i
0o
1h
1n
#1020
1x
1i
1o
0h
0n
#1022
b0 t
0x
0i
0o
1h
1n
#1024
1x
1i
1o
0h
0n
#1026
b0 t
0x
0i
0o
1h
1n
#1028
1x
1i
1o
0h
0n
#1030
b0 t
0x
0i
0o
1h
1n
#1032
1x
1i
1o
0h
0n
#1034
b0 t
0x
0i
0o
1h
1n
#1036
1x
1i
1o
0h
0n
#1038
b0 t
0x
0i
0o
1h
1n
#1040
1x
1i
1o
0h
0n
#1042
b0 t
0x
0i
0o
1h
1n
#1044
1x
1i
1o
0h
0n
#1046
b0 t
0x
0i
0o
1h
1n
#1048
1x
1i
1o
0h
0n
#1050
b0 t
0x
0i
0o
1h
1n
#1052
1x
1i
1o
0h
0n
#1054
b0 t
0x
0i
0o
1h
1n
#1056
1x
1i
1o
0h
0n
#1058
b0 t
0x
0i
0o
1h
1n
#1060
1x
1i
1o
0h
0n
#1062
b0 t
0x
0i
0o
1h
1n
#1064
1x
1i
1o
0h
0n
#1066
b0 t
0x
0i
0o
1h
1n
#1068
1x
1i
1o
0h
0n
#1070
b0 t
0x
0i
0o
1h
1n
#1072
1x
1i
1o
0h
0n
#1074
b0 t
0x
0i
0o
1h
1n
#1076
1x
1i
1o
0h
0n
#1078
b0 t
0x
0i
0o
1h
1n
#1080
1x
1i
1o
0h
0n
#1082
b0 t
0x
0i
0o
1h
1n
#1084
1x
1i
1o
0h
0n
#1086
b0 t
0x
0i
0o
1h
1n
#1088
1x
1i
1o
0h
0n
#1090
b0 t
0x
0i
0o
1h
1n
#1092
1x
1i
1o
0h
0n
#1094
b0 t
0x
0i
0o
1h
1n
#1096
1x
1i
1o
0h
0n
#1098
b0 t
0x
0i
0o
1h
1n
#1100
1x
1i
1o
0h
0n
#1102
b0 t
0x
0i
0o
1h
1n
#1104
1x
1i
1o
0h
0n
#1106
b0 t
0x
0i
0o
1h
1n
#1108
1x
1i
1o
0h
0n
#1110
b0 t
0x
0i
0o
1h
1n
#1112
1x
1i
1o
0h
0n
#1114
b0 t
0x
0i
0o
1h
1n
#1116
1x
1i
1o
0h
0n
#1118
b0 t
0x
0i
0o
1h
1n
#1120
1x
1i
1o
0h
0n
#1122
b0 t
0x
0i
0o
1h
1n
#1124
1x
1i
1o
0h
0n
#1126
b0 t
0x
0i
0o
1h
1n
#1128
1x
1i
1o
0h
0n
#1130
b0 t
0x
0i
0o
1h
1n
#1132
1x
1i
1o
0h
0n
#1134
b0 t
0x
0i
0o
1h
1n
#1136
1x
1i
1o
0h
0n
#1138
b0 t
0x
0i
0o
1h
1n
#1140
1x
1i
1o
0h
0n
#1142
b0 t
0x
0i
0o
1h
1n
#1144
1x
1i
1o
0h
0n
#1146
b0 t
0x
0i
0o
1h
1n
#1148
1x
1i
1o
0h
0n
#1150
b0 t
0x
0i
0o
1h
1n
#1152
1x
1i
1o
0h
0n
#1154
b0 t
0x
0i
0o
1h
1n
#1156
1x
1i
1o
0h
0n
#1158
b0 t
0x
0i
0o
1h
1n
#1160
1x
1i
1o
0h
0n
#1162
b0 t
0x
0i
0o
1h
1n
#1164
1x
1i
1o
0h
0n
#1166
b0 t
0x
0i
0o
1h
1n
#1168
1x
1i
1o
0h
0n
#1170
b0 t
0x
0i
0o
1h
1n
#1172
1x
1i
1o
0h
0n
#1174
b0 t
0x
0i
0o
1h
1n
#1176
1x
1i
1o
0h
0n
#1178
b0 t
0x
0i
0o
1h
1n
#1180
1x
1i
1o
0h
0n
#1182
b0 t
0x
0i
0o
1h
1n
#1184
1x
1i
1o
0h
0n
#1186
b0 t
0x
0i
0o
1h
1n
#1188
1x
1i
1o
0h
0n
